{
	"info": {
		"_postman_id": "0b06a7f8-c940-4ade-8d6c-7bdca3461cf2",
		"name": "postman-echo.com/get",
		"schema": "https://schema.getpostman.com/json/collection/v2.1.0/collection.json"
	},
	"item": [
		{
			"name": "GET",
			"item": [
				{
					"name": "POST Request",
					"event": [
						{
							"listen": "prerequest",
							"script": {
								"exec": [
									"pm.globals.set (\"host\", \"postman-echo.com\")\r",
									"var a = function getRandom(max) {\r",
									"  return Math.floor(Math.random() * max).toString();\r",
									"}\r",
									"pm.globals.set (\"post1\",a(100))\r",
									"var b = function makeid(length) {\r",
									"    var result           = '';\r",
									"    var characters       = 'ABCDEFGHIJKLMNOPQRSTUVWXYZabcdefghijklmnopqrstuvwxyz0123456789';\r",
									"    var charactersLength = characters.length;\r",
									"    for ( var i = 0; i < length; i++ ) {\r",
									"      result += characters.charAt(Math.floor(Math.random() * \r",
									" charactersLength));\r",
									"   }\r",
									"   return result;\r",
									"}\r",
									"pm.globals.set (\"post2\",b(10))\r",
									"console.log(b(10));\r",
									"\r",
									"function randomDate(start, end) {\r",
									"  return new Date(start.getTime() + Math.random() * (end.getTime() - start.getTime()));\r",
									"}\r",
									"const d = randomDate(new Date(2012, 0, 1), new Date());\r",
									"console.log(d);\r",
									"pm.globals.set (\"post3\",d)\r",
									"\r",
									""
								],
								"type": "text/javascript"
							}
						},
						{
							"listen": "test",
							"script": {
								"exec": [
									"pm.test(\"data. request\", function () {\r",
									"    var jsonData = pm.response.json();\r",
									"    pm.expect(jsonData.data.request1).to.eql(pm.globals.get(\"post1\"));\r",
									"});\r",
									"if (pm.response.json().data.request1 === pm.globals.get(\"post1\")) {\r",
									"console.log(\"Status code \" +pm.response.code)\r",
									"}\r",
									"pm.test(\"data. request2\", function () {\r",
									"    var jsonData = pm.response.json();\r",
									"    pm.expect(jsonData.data.request2).to.eql(pm.globals.get(\"post2\"));\r",
									"});\r",
									"pm.test(\"data. request3\", function () {\r",
									"    var jsonData = pm.response.json();\r",
									"    pm.expect(jsonData.data.request3).to.eql(pm.globals.get(\"post3\"));\r",
									"});\r",
									"console.log (\"Test Status code\")\r",
									"pm.test(\"Status code is 200\", function () {\r",
									"    pm.response.to.have.status(200);\r",
									"});\r",
									"if (pm.response.code !== 200) {\r",
									"    console.log(\"Failed with status - \" + pm.response.code + \" \" + pm.response.status);\r",
									"} else {\r",
									"    console.log(\"Passed with - \" + pm.response.code + \" \" + pm.response.status);\r",
									"}\r",
									"console.log (\"Test Response time\")\r",
									"\r",
									"pm.test(\"Response time is less than 200ms\", function () {\r",
									"    pm.expect(pm.response.responseTime).to.be.below(200);\r",
									"});\r",
									"if (pm.response.responseTime <= 200) {\r",
									"    console.log (\"Test Passed, Response time - \" + pm.response.responseTime +\" ms\")\r",
									"}\r",
									"else {\r",
									"    console.log (\"Test Failed, Response time -\" + pm.response.responseTime +\" ms\")\r",
									"}\r",
									"console.log (\"Test Status code name has string\")\r",
									"pm.test(\"Status code name has string\", function () {\r",
									"    pm.response.to.have.status(\"OK\");\r",
									"});\r",
									"if (pm.response.status === \"OK\" ) {\r",
									"    console.log (\"Satus code - \" + pm.response.status)\r",
									"}\r",
									"else {\r",
									"    console.log (\"Staus code - Faild\")\r",
									"}\r",
									"pm.test(\"JSon response\", function () {\r",
									"    var a = pm.response.json();\r",
									"   pm.expect(a.headers.host).to.eql(\"postman-echo.com\");\r",
									"});\r",
									"console.log(\"Host - \" + pm.response.json().headers.host)\r",
									""
								],
								"type": "text/javascript"
							}
						}
					],
					"request": {
						"method": "POST",
						"header": [
							{
								"key": "Content-Type",
								"value": "application/json",
								"type": "text"
							}
						],
						"body": {
							"mode": "raw",
							"raw": "{ \"request1\":\"{{post1}}\", \r\n \"request2\":\"{{post2}}\",\r\n \"request3\":\"{{post3}}\" }"
						},
						"url": {
							"raw": "{{host}}/post",
							"host": [
								"{{host}}"
							],
							"path": [
								"post"
							]
						}
					},
					"response": []
				}
			]
		},
		{
			"name": "New Request",
			"event": [
				{
					"listen": "prerequest",
					"script": {
						"exec": [
							"pm.globals.set (\"host\", \"postman-echo.com\")\r",
							"console.log (\"Start test\")\r",
							""
						],
						"type": "text/javascript"
					}
				},
				{
					"listen": "test",
					"script": {
						"exec": [
							"console.log (\"Test Status code\")\r",
							"pm.test(\"Status code is 200\", function () {\r",
							"    pm.response.to.have.status(200);\r",
							"});\r",
							"if (pm.response.code !== 200) {\r",
							"    console.log(\"Failed with status - \" + pm.response.code + \" \" + pm.response.status);\r",
							"} else {\r",
							"    console.log(\"Passed with - \" + pm.response.code + \" \" + pm.response.status);\r",
							"}\r",
							"console.log (\"Test Response time\")\r",
							"\r",
							"pm.test(\"Response time is less than 200ms\", function () {\r",
							"    pm.expect(pm.response.responseTime).to.be.below(200);\r",
							"});\r",
							"if (pm.response.responseTime <= 200) {\r",
							"    console.log (\"Test Passed, Response time - \" + pm.response.responseTime +\" ms\")\r",
							"}\r",
							"else {\r",
							"    console.log (\"Test Failed, Response time -\" + pm.response.responseTime +\" ms\")\r",
							"}\r",
							"console.log (\"Test Status code name has string\")\r",
							"pm.test(\"Status code name has string\", function () {\r",
							"    pm.response.to.have.status(\"OK\");\r",
							"});\r",
							"if (pm.response.status === \"OK\" ) {\r",
							"    console.log (\"Satus code - \" + pm.response.status)\r",
							"}\r",
							"else {\r",
							"    console.log (\"Staus code - Faild\")\r",
							"}\r",
							"pm.test(\"JSon response\", function () {\r",
							"    var a = pm.response.json();\r",
							"   pm.expect(a.headers.host).to.eql(\"postman-echo.com\");\r",
							"});\r",
							"console.log(\"Host - \" + pm.response.json().headers.host)\r",
							"\r",
							""
						],
						"type": "text/javascript"
					}
				}
			],
			"protocolProfileBehavior": {
				"disabledSystemHeaders": {}
			},
			"request": {
				"method": "GET",
				"header": [],
				"url": {
					"raw": "{{host}}/get",
					"host": [
						"{{host}}"
					],
					"path": [
						"get"
					]
				}
			},
			"response": []
		}
	]
}